{
    "server": "mail.riseup.net:587",
    "username": "codebam@riseup.net",
    "sender": "merrychristmas@riseup.net",
    "subject": "Secret Santa Delivery",
    "end_date": "Friday December 14th"
}
